Version 4
SHEET 1 880 680
WIRE 80 48 32 48
WIRE 224 48 144 48
WIRE 320 48 224 48
WIRE 416 48 384 48
WIRE 560 48 480 48
WIRE 32 224 32 48
WIRE 32 224 -64 224
WIRE 80 224 32 224
WIRE 240 224 144 224
WIRE 336 224 240 224
WIRE 432 224 400 224
WIRE 560 224 496 224
WIRE 640 224 640 48
WIRE 672 224 640 224
WIRE 32 400 32 224
WIRE 80 400 32 400
WIRE 256 400 144 400
WIRE 432 400 256 400
WIRE 560 400 496 400
WIRE 640 400 640 224
FLAG 672 224 0
FLAG -64 304 0
FLAG 224 48 Green&Green
FLAG 240 224 Blue&Blue
FLAG 256 400 Red
SYMBOL voltage -64 208 R0
SYMATTR InstName V1
SYMATTR Value 24
SYMBOL LED 416 64 R270
WINDOW 0 72 32 VTop 2
WINDOW 3 0 32 VBottom 2
SYMATTR InstName D4
SYMBOL LED 432 240 R270
WINDOW 0 72 32 VTop 2
WINDOW 3 0 32 VBottom 2
SYMATTR InstName D5
SYMBOL LED 432 416 R270
WINDOW 0 72 32 VTop 2
WINDOW 3 0 32 VBottom 2
SYMATTR InstName D6
SYMBOL zener 144 32 R90
WINDOW 0 -4 32 VBottom 2
WINDOW 3 36 32 VTop 2
SYMATTR InstName D1
SYMATTR Value BZX84C10L
SYMBOL zener 144 208 R90
WINDOW 0 -4 32 VBottom 2
WINDOW 3 36 32 VTop 2
SYMATTR InstName D2
SYMATTR Value BZX84C6V2L
SYMBOL zener 144 384 R90
WINDOW 0 -4 32 VBottom 2
WINDOW 3 36 32 VTop 2
SYMATTR InstName D3
SYMATTR Value Zeni
SYMBOL res 656 32 R90
WINDOW 0 0 56 VBottom 2
WINDOW 3 32 56 VTop 2
SYMATTR InstName R1
SYMATTR Value 1k
SYMBOL res 656 384 R90
WINDOW 0 0 56 VBottom 2
WINDOW 3 32 56 VTop 2
SYMATTR InstName R2
SYMATTR Value 1K
SYMBOL res 656 208 R90
WINDOW 0 0 56 VBottom 2
WINDOW 3 32 56 VTop 2
SYMATTR InstName R3
SYMATTR Value 1K
SYMBOL LED 320 64 R270
WINDOW 0 72 32 VTop 2
WINDOW 3 0 32 VBottom 2
SYMATTR InstName D7
SYMBOL LED 336 240 R270
WINDOW 0 72 32 VTop 2
WINDOW 3 0 32 VBottom 2
SYMATTR InstName D8
TEXT -218 442 Left 2 !.dc V1 0 24s
TEXT -224 496 Left 2 !.model Zeni ako: BZX84C10L Bv=2.4
